…
pve

## # A tibble: 6,157,883 × 39
##    fips  pop_estimate_2019 date       mmwr_week recip_county   recip_state
##    <chr>             <dbl> <chr>          <dbl> <chr>          <chr>      
##  1 00000         328239523 <NA>              NA <NA>           <NA>       
##  2 01000           4903185 <NA>              NA <NA>           <NA>       
##  3 01001             55869 09/18/2021        37 Autauga County AL         
##  4 01001             55869 09/18/2021        37 Autauga County AL         
##  5 01001             55869 09/18/2021        37 Autauga County AL         
##  6 01001             55869 09/17/2021        37 Autauga County AL         
##  7 01001             55869 09/17/2021        37 Autauga County AL         
##  8 01001             55869 09/17/2021        37 Autauga County AL         
##  9 01001             55869 09/16/2021        37 Autauga County AL         
## 10 01001             55869 09/16/2021        37 Autauga County AL         
## # … with 6,157,873 more rows, and 33 more variables:
## #   series_complete_pop_pct <dbl>, series_complete_yes <dbl>,
## #   series_complete_12plus <dbl>, series_complete_12plus_pop_pct <dbl>,
## #   series_complete_18plus <dbl>, series_complete_18plus_pop_pct <dbl>,
## #   series_complete_65plus <dbl>, series_complete_65plus_pop_pct <dbl>,
## #   completeness_pct <dbl>, administered_dose1_recip <dbl>,
## #   administered_dose1_pop_pct <dbl>, administered_dose1_recip_12plus <dbl>, …
